FileName,Count
Week1_150607_E05_s1_w25638D64A-4A43-43C2-A060-5136F0676AE6.tif,86
Week1_150607_E11_s1_w10186D003-495B-4B7F-AACD-C4BC2FAFC1A3.tif,2
Week1_150607_G03_s4_w4C498C518-8431-46FC-8811-EF5C959AC181.tif,3
Week1_150607_G02_s1_w1F1599125-08C0-43A4-A0EE-AAD566861D63.tif,0
Week1_150607_B10_s3_w4B20D40F9-7AA2-44D6-8E03-9A00059DA060.tif,13
Week1_150607_E10_s1_w1CA7826FB-76BC-496D-9AD3-93BD9CDD6191.tif,0
Week1_150607_B09_s2_w41B16B31A-7376-4B73-BD60-45926B6F4F4A.tif,14
Week1_150607_F02_s3_w43362E22C-55A9-48C5-BDFB-8E0984E00F16.tif,54
Week1_150607_D08_s2_w2BBDA08CA-235B-49B2-8A9A-0890420B32E5.tif,60
Week1_150607_C03_s3_w143CAD5DA-3379-470C-945E-7F8416B13880.tif,0
Week1_150607_B03_s1_w2CAEC09A2-969B-48A9-BE0B-C6825D180EB4.tif,78
Week1_150607_D08_s1_w442DFFAE1-3363-4216-AB82-AC9589CC1EAA.tif,75
Week1_150607_G05_s4_w24E2B8BBB-63A3-4891-A510-E6223660BDBE.tif,214
Week1_150607_G08_s3_w25C137DF6-033B-468A-BEFE-5429E38EC9EF.tif,369
Week1_150607_F08_s1_w1FCB0A946-6A18-4A78-B06A-6257EF246D66.tif,0
Week1_150607_G11_s4_w222E9D831-83FE-4D46-9620-F1757EEFC17E.tif,469
Week1_150607_B07_s1_w2DA01A9EB-07DF-49AD-9CB9-F0E0E809E5A0.tif,180
Week1_150607_E03_s4_w2A1EF1179-B50C-45E3-8AE2-E1353ACAA729.tif,70
Week1_150607_F04_s1_w4C0C77816-96DE-4509-BD54-4C36D96E4716.tif,6
Week1_150607_G06_s4_w439E142A8-904A-49B9-94EE-9C34BAE10066.tif,9
Week1_150607_D05_s1_w11D379C0B-4A5C-4B52-B10D-93209AC18535.tif,1
Week1_150607_E09_s4_w4EC086750-CD42-4705-8304-2841DEB4C851.tif,17
Week1_150607_C04_s1_w19CFF22AC-A4CE-46E9-94CD-D1A4EF0056EB.tif,0
Week1_150607_G02_s2_w4F122654D-7FB6-4769-8AF0-82FAF56A77B0.tif,55
Week1_150607_C11_s2_w43FDD2804-5365-4B69-8CE0-7C840D8B3C8F.tif,45
Week1_150607_G04_s2_w1E5D10F39-C721-44B4-B2C7-004D55AA8937.tif,0
Week1_150607_D06_s1_w27356E93D-59ED-4315-82B1-A853807A8DE5.tif,63
Week1_150607_D07_s1_w4FCCD92E7-7755-46A3-993F-0F48C1B818FB.tif,52
Week1_150607_F05_s2_w283726956-3BCE-4CC1-8802-64AB24B2B500.tif,220
Week1_150607_E02_s3_w414AAB7AA-4552-4C37-8AE7-F211E02E45A0.tif,130
Week1_150607_B09_s1_w4B487C33F-62BC-4732-BBA0-CA3EF5934FF5.tif,19
Week1_150607_G10_s2_w4A8D3482A-B989-49D8-8E00-CE9528F96C5B.tif,9
Week1_150607_C04_s1_w2AFA944FA-C6D5-48C8-9E4F-4F2F3C1C9980.tif,308
Week1_150607_E06_s2_w485F9FE49-AAEC-4C16-8BFA-034AD0B80B7D.tif,49
Week1_150607_C05_s1_w1D2ADFAB7-68C1-4133-88A4-680C00D053F1.tif,0
Week1_150607_E09_s2_w17672FEF6-730F-486F-BBC5-484128A2A8EC.tif,1
Week1_150607_C10_s2_w47AA580AF-DFBB-4C81-B01C-7FF9375D3FFE.tif,16
Week1_150607_F10_s2_w4EF692928-10C9-453C-88EE-F421E2A7B7F1.tif,4
Week1_150607_G11_s3_w11C752979-3936-4F1C-84A1-A8F35E9E3456.tif,0
Week1_150607_D11_s4_w4B42D4C08-137E-4D97-B9C3-24123A644805.tif,62
Week1_150607_C02_s1_w49BA20679-CBDE-49B8-9664-97AF91C9AFD3.tif,12
Week1_150607_B07_s4_w2EA08A0D1-EC31-4AA6-BF5E-F068DA6D7896.tif,499
Week1_150607_D08_s2_w198C6F40C-288B-4048-BE08-95C47090AF15.tif,2
Week1_150607_G03_s2_w192D6EFF8-D8F6-4AF0-AF33-A23B9F2E6F26.tif,0
Week1_150607_B02_s1_w107447158-AC76-4844-8431-E6A954BD1174.tif,1
Week1_150607_E05_s4_w22906215F-8F82-4C9C-B915-919F7CFD1B8E.tif,124
Week1_150607_G11_s1_w2665E7CDD-FD79-49D3-951E-BC03A2F6E951.tif,349
Week1_150607_B03_s2_w1B41C8265-7501-433B-B901-C57F0A1A39B7.tif,2
Week1_150607_G10_s2_w165ACD78A-C9CA-4D0E-B79D-ADC992CD839E.tif,0
Week1_150607_C03_s4_w2772A3547-E55F-4071-B663-BB18D6E5B4F4.tif,243
Week1_150607_B02_s4_w2EE226363-0BAC-443F-A41C-16C9C89FDDFA.tif,417
Week1_150607_C08_s3_w2E020F75F-1BAB-4F9B-BCEC-AE2DA7638147.tif,432
Week1_150607_G06_s1_w15338A7CB-2294-45EF-85B0-84CE3B779E9F.tif,1
Week1_150607_C08_s1_w25D455F3B-E5DB-44A9-85CF-9ED099B9C5AA.tif,400
Week1_150607_F10_s4_w110E6DD80-D202-40C9-BA1D-618CDBC2A668.tif,0
Week1_150607_C07_s2_w2CAA085DA-7791-4927-8B4A-81EFB0799F0C.tif,279
Week1_150607_E04_s2_w4D19BB584-0CAC-4D8C-968E-C98504B47D28.tif,36
Week1_150607_E04_s2_w1D22F7363-A16A-480F-8FD2-9500053ACC49.tif,1
Week1_150607_B11_s1_w22DD1576D-3CA3-445F-9639-CBB728301F5E.tif,80
Week1_150607_F10_s3_w28F532774-F898-4E3C-8A9F-256806249DA7.tif,329
Week1_150607_C08_s3_w48830CEBA-C857-4FA1-A5CF-29B1A73B52C7.tif,13
Week1_150607_E08_s1_w1CEEA4B32-8E5E-4A7E-96B4-7DBA712707EE.tif,3
Week1_150607_E07_s4_w20644E37C-BC54-4071-A6B9-8889B5152090.tif,226
Week1_150607_C08_s4_w2C2183A7D-FBFD-4168-A303-91FD5E252CF6.tif,317
Week1_150607_B09_s2_w2262CE7F7-0121-45AB-A389-4ADBF4C90FB1.tif,270
Week1_150607_B08_s2_w4724DA7A5-3452-4AA3-9A9F-B0B27542D209.tif,12
Week1_150607_D10_s2_w205EA55DD-CC5C-4824-A62D-9B2AA477CC25.tif,176
Week1_150607_C08_s2_w214CE8191-07E3-4064-BBA2-1E348C6EC0AB.tif,296
Week1_150607_F10_s4_w23BD2F854-D156-467D-8D3A-C2CA7A5101F1.tif,189
Week1_150607_D09_s1_w16209219E-221F-4827-8D87-A1DF4E90B913.tif,0
Week1_150607_D07_s1_w1595379BB-AF9C-4548-BC87-AE9DE94B5FD5.tif,0
Week1_150607_C05_s3_w4D62C4253-2CA5-4F24-B469-8695957C9FFB.tif,25
Week1_150607_B10_s3_w28CEF49FA-270C-4A98-BD7D-6B34FE65F5BF.tif,227
Week1_150607_B10_s1_w28199D9D5-BD34-487F-AFCB-CFF1F2B7D415.tif,256
Week1_150607_F02_s1_w2B600D7DC-4D2F-496B-8483-37798285FC90.tif,67
Week1_150607_B08_s1_w4B7E3D851-206B-482E-8DE6-0AD713571A6E.tif,24
Week1_150607_G04_s4_w191D565C1-132E-4C52-865C-4C1177F7B3D5.tif,1
Week1_150607_D10_s1_w2F0BF2896-0256-4706-B107-F0124E420909.tif,224
Week1_150607_G09_s1_w4CAE0865D-7E73-413F-8CF4-953D2012F16C.tif,3
Week1_150607_E06_s3_w1E412B057-98A1-4CA2-9561-37D40EF43597.tif,1
Week1_150607_F08_s4_w4BF3200FF-FAAC-4019-B3F9-CA7795B0F5D3.tif,12
Week1_150607_F09_s1_w11837A0D4-DE80-4871-8600-1AA916E2F7E2.tif,0
Week1_150607_F06_s1_w4486A84E8-B2E7-4E7E-BF8C-2A8B3784F011.tif,21
Week1_150607_G06_s4_w13D1672FC-BBA4-415D-BC64-9AF3E8519383.tif,0
Week1_150607_D06_s2_w1C0B7D96A-123E-493E-A4F2-05CD88687841.tif,2
Week1_150607_G03_s2_w4139B195C-7709-4C37-A647-F882CB66ADB9.tif,2
Week1_150607_G07_s1_w4C047A727-17B8-4DBC-920A-A1A20B773250.tif,11
Week1_150607_D08_s4_w254180AF7-7AAB-44ED-BDBD-AB3DADF30C4D.tif,61
Week1_150607_B02_s2_w424B5B29B-1CEE-4A43-88C3-0A7389B25DE9.tif,19
Week1_150607_G04_s1_w2387E3D0E-B2A9-41B5-A11E-2CD22B3B647B.tif,240
Week1_150607_F02_s3_w2466D939A-0E0C-4045-82D9-6CBACB8474D2.tif,76
Week1_150607_C02_s4_w2268A78D8-996D-4125-93BB-398F1DC2DB85.tif,373
Week1_150607_C09_s2_w427C7B419-239B-4A03-9A29-60139730E6A7.tif,14
Week1_150607_C05_s3_w1FE30A507-3BBE-4200-82CE-680F7816EAC6.tif,1
Week1_150607_D07_s4_w419CCAC74-90B3-4B66-AFCB-1E1BF7C5A4A0.tif,68
Week1_150607_F08_s3_w2AC533C3F-5A51-4B87-BCCB-3DA98F008D97.tif,315
Week1_150607_E08_s1_w216AE8CA6-1EE1-4051-9BEB-FEC620076A83.tif,318
Week1_150607_D02_s1_w1FFD19704-11C0-4A11-A24D-38EDBD8E73CE.tif,0
Week1_150607_C10_s4_w1D47B6FCE-5480-4D6E-A014-34CFBA671ACA.tif,0
Week1_150607_C10_s1_w171173D63-FDAC-457A-9E33-9A97B4B33AB3.tif,0
Week1_150607_E09_s2_w266B64EA1-9556-453F-A130-E533B723174F.tif,298
Week1_150607_C08_s4_w47196ECD0-1570-42DF-B452-1083E8C8A94D.tif,35
Week1_150607_D10_s4_w452E56998-AB79-4820-874A-959C4CEF9816.tif,21
Week1_150607_G11_s4_w18BCE92B9-7893-40C3-91DD-01C55F935872.tif,0
Week1_150607_G11_s3_w4A65F9AC2-F658-4EEF-92BE-19100265C257.tif,15
Week1_150607_G05_s3_w19281AF3C-AD17-4ED2-9CA2-65B31DFA66B1.tif,1
Week1_150607_E02_s2_w45412E746-BC4C-4752-98A7-C6FAFC4E2284.tif,39
Week1_150607_F02_s4_w1971D4EBA-B522-4D42-BFD7-85CC424B9B62.tif,0
Week1_150607_G03_s3_w119D1F772-BE77-4D1A-BE5B-A0811DC03A9E.tif,0
Week1_150607_B08_s2_w160178537-262A-4A14-BCB4-F6731A9CFEC6.tif,2
Week1_150607_F04_s3_w40A0F3010-4986-403B-AAF9-A9B28E6616D6.tif,17
Week1_150607_F09_s3_w142BD5483-EAAC-4EE1-812B-F64EFB395E46.tif,1
Week1_150607_F06_s4_w49632A0CE-81C2-49F8-8F29-05793B4DFCCE.tif,8
Week1_150607_G04_s2_w243EFDBA9-C760-4416-B02B-B07080E881DA.tif,179
Week1_150607_C06_s4_w2AF269F29-6F34-40BD-B680-7B1B31B662AB.tif,329
Week1_150607_G10_s4_w1B99B9807-28C9-42B5-BC42-CDBA6F3F7C74.tif,1
Week1_150607_E04_s1_w479EC1B1E-86DB-4761-886C-1F96AC095E30.tif,79
Week1_150607_B06_s2_w216041400-9BA0-4CE3-90DF-B1506C7971A6.tif,259
Week1_150607_B03_s4_w2920745D3-B57F-485E-BAD1-0F414F0992FF.tif,37
Week1_150607_B07_s2_w1486C7FEB-D3ED-4105-BF4E-82A1F2CB9830.tif,2
Week1_150607_D05_s3_w1DC4E8504-2DA4-4140-89AF-33C263E18D13.tif,0
Week1_150607_E11_s2_w2DB700A1F-A618-4A09-8A38-6CEF04E95AF8.tif,304
Week1_150607_G06_s3_w4D567D1FF-C160-4762-9D2C-95D63968176C.tif,7
Week1_150607_D07_s2_w10BB7E1BE-D5D8-4FFE-8FBA-030355A94EC5.tif,0
Week1_150607_C08_s2_w4DB5DA689-B099-46BD-97B9-5706D6A9F085.tif,22
Week1_150607_F09_s3_w4748D365D-F6B3-4733-8024-A74D38E28F52.tif,23
Week1_150607_F07_s1_w472ABF321-7AA6-45F9-9118-F15C08123D2F.tif,6
Week1_150607_C04_s4_w235E1942C-B437-4DDA-B14B-592DA23D3984.tif,306
Week1_150607_E03_s4_w4C29A1AC2-9D46-4A6B-A652-826F08B44B21.tif,60
Week1_150607_D05_s1_w44028DDC8-C126-4329-856E-A09FC3316382.tif,98
Week1_150607_D09_s4_w17897E77E-C203-4FB3-ADB1-F1DE86371F70.tif,0
Week1_150607_B04_s2_w2802CC81E-56F9-41C5-A6C2-E5A0F233ED3B.tif,54
Week1_150607_D09_s2_w12C4A5A39-B7C2-451E-84E5-21B7FBAF5FE5.tif,3
Week1_150607_G10_s1_w13ED2606F-4CF1-4B81-8CED-0254AAB665E4.tif,1
Week1_150607_F10_s2_w180985E50-896A-4A46-AC0A-0AC5BF9EA9A6.tif,0
Week1_150607_F03_s3_w4C554D59A-EEFC-4B12-9535-E34EBA130B34.tif,3
Week1_150607_F02_s2_w1648A3268-9E8A-40EC-B7D3-442A80C5E2A0.tif,0
Week1_150607_D08_s3_w476BEB767-0BAD-4CB6-B5D6-90A250A9803A.tif,40
Week1_150607_B05_s4_w184AAA935-05DE-4586-BD96-C6D226E8C765.tif,26
Week1_150607_D10_s2_w4D2F2E133-E0C9-492E-B367-3E94C75D1905.tif,39
Week1_150607_F05_s3_w1FAB56D0A-B617-4A3F-8AC3-6DD9B7D4D7BF.tif,0
Week1_150607_E02_s4_w43C7A9BB9-BE77-4E21-8B78-366F72BCCF26.tif,59
Week1_150607_D06_s1_w4151CDD02-4C29-40E7-820C-B2D73D699273.tif,50
Week1_150607_E09_s3_w2DE289936-E2A3-4898-BE80-757D1E22FCD5.tif,432
Week1_150607_G06_s4_w29ADE22A0-CC01-4FF5-AA86-540DAE2BFDD9.tif,196
Week1_150607_B07_s2_w4F9989AE7-8BBF-40F2-8941-B7E09C7B69A9.tif,41
Week1_150607_E08_s4_w1A0CAD6D5-F863-4C38-9CFC-CA78EE112E85.tif,1
Week1_150607_B11_s1_w1AF4E7ECE-5E16-4738-AB19-DE26D79D3A20.tif,0
Week1_150607_B10_s1_w40CBB8757-C983-4013-AA0A-95F5C4FCD474.tif,16
Week1_150607_E07_s3_w11E367FEA-85F3-4F37-9BBA-248B40A31A98.tif,1
Week1_150607_G09_s2_w13B44DBB7-5ED4-419B-B8C7-ABD8F3AFB387.tif,0
Week1_150607_E08_s3_w2D3573E3A-27C0-4454-815C-D4F9E2D83A93.tif,350
Week1_150607_F05_s1_w4816C2D5A-747B-4A0D-9F83-4EF2E6D981C7.tif,12
Week1_150607_G07_s4_w4B21DE140-5207-4336-A0F1-32FFAF40430B.tif,4
Week1_150607_C02_s1_w13355670E-7C0E-404D-9EB5-61864343DF0B.tif,0
Week1_150607_C02_s2_w47FE5FE60-83AB-448A-8043-5034190B7E75.tif,23
Week1_150607_G08_s3_w19D17EE45-A6F4-4FB0-BEE5-A2AD4D654617.tif,1
Week1_150607_G10_s3_w18B9248AB-3305-40CA-8AA1-757C67A527AA.tif,1
Week1_150607_G05_s3_w21E259F1B-2397-45A7-9DE2-1FE5B31927C1.tif,165
Week1_150607_G02_s3_w4212D991E-F564-4ADE-B3E8-E988AD906425.tif,45
Week1_150607_F03_s2_w4B65287E3-CAC2-4BDA-9CE3-D75E276A45F0.tif,2
Week1_150607_C07_s1_w46D54AA9A-CB2C-4F47-BD09-B0FA9BEEAF78.tif,12
Week1_150607_G06_s3_w1FBA11FC8-D143-41FB-B396-FA312E546C76.tif,0
Week1_150607_F05_s4_w4656E27F8-3A4B-435E-AA38-F4F6B17BC7A1.tif,6
Week1_150607_F05_s4_w22A239B61-B45B-425F-8C86-1E94B69E2C99.tif,217
Week1_150607_G04_s1_w40C825D95-9A44-472B-8A77-D32E3B6F343D.tif,13
Week1_150607_D04_s4_w22CD407CD-9FF1-476E-BADE-073F2D419AA2.tif,80
Week1_150607_G06_s1_w2DA77EB74-2669-46B0-8CB1-A1F8BE0C1DB0.tif,300
Week1_150607_F05_s3_w49EDE8B21-4E92-4081-B890-A1FAB13A6C68.tif,33
Week1_150607_D08_s2_w4DAE4612B-5F17-453E-8181-496A82BD036A.tif,49
Week1_150607_C08_s4_w1F97A5987-55C9-4639-8705-3927728B9E28.tif,0
Week1_150607_G05_s3_w4F3DDC6AE-F422-466A-93DC-8121BC7F9D21.tif,3
Week1_150607_B05_s2_w45ED41E00-07C9-4B6B-8D11-23D5A2505ABD.tif,99
Week1_150607_D06_s3_w1DE359B29-053E-4507-9D5A-1D53420A2787.tif,0
Week1_150607_G05_s1_w16CD4CE08-7601-41BB-95CC-0A109E9E050D.tif,0
Week1_150607_E07_s4_w483558AC5-DCDD-4666-B277-CAE8EC8DCE5E.tif,78
Week1_150607_B04_s3_w408BE006A-BF34-457E-81A9-FAB019FE8996.tif,76
Week1_150607_B02_s3_w1655B02F9-3E1A-44E4-ADA1-5FE25B8935EE.tif,0
Week1_150607_D10_s3_w26491D8F9-CF81-4D24-A7FB-7F2DDCC84044.tif,287
Week1_150607_C03_s2_w1A7BE714F-01C1-4332-86FB-02FEC319236A.tif,0
Week1_150607_F07_s2_w4C97E85C2-8F48-4245-8F93-E1D60316CD94.tif,22
Week1_150607_B11_s1_w4DE21EDFB-2D22-47B4-9BFD-C7FD61C7335B.tif,36
Week1_150607_F08_s1_w4FADCBC3C-B879-44AA-9830-E57B5325C209.tif,19
Week1_150607_G06_s2_w17BA277C4-6863-477C-92F2-7834E1B8DD03.tif,1
Week1_150607_D03_s1_w23CB90716-42D3-4820-B9A5-71D3A68EA5D6.tif,149
Week1_150607_F08_s1_w2331BCDB8-E52F-4E1E-90CE-25B6F45615D4.tif,322
Week1_150607_E11_s3_w2278F3BA3-B85E-4268-8DBC-A63C47480366.tif,402
Week1_150607_E09_s1_w4B88F72FD-5E35-4179-BF5C-FE59EC7C7B33.tif,2
Week1_150607_F03_s2_w189C8FD7C-A2C5-4DE7-A47A-27934F085156.tif,0
Week1_150607_C02_s2_w2E127A4CB-36B0-47A0-9F95-28EC17EDCB82.tif,427
Week1_150607_G03_s3_w424BADE35-7036-46DF-BBC0-21C91DBE4ED7.tif,7
Week1_150607_F07_s3_w24BB884CD-8F33-48DF-B892-EE70DD49E4BD.tif,342
Week1_150607_F03_s4_w1515CAA10-49D5-499E-9B46-65A4264F315D.tif,0
Week1_150607_E03_s1_w2104E0137-752D-45DB-ACA6-2438B95BD17D.tif,86
Week1_150607_C03_s4_w1E6CF71F3-F345-4D93-A27D-1639882E92D5.tif,0
Week1_150607_C05_s2_w2D0B5ED9D-13DC-4210-90CD-5DC3472A5E5D.tif,244
Week1_150607_G04_s3_w1CD71A3B1-B8A5-481D-BDB2-445256ECC61A.tif,1
Week1_150607_C09_s1_w1CC450920-31F4-45D3-B500-721CA5726372.tif,0
Week1_150607_E08_s2_w183F66AC4-1C15-4ABA-BD33-06D188AD670E.tif,0
Week1_150607_G09_s1_w1E0A5765A-7225-40DF-B44C-AEED44CDD337.tif,0
Week1_150607_G09_s2_w233B70151-A198-44EE-8119-49FF1878A84C.tif,257
Week1_150607_D03_s2_w1A73EB8E5-B132-459C-AA1D-A0EC44A5DB5A.tif,0
Week1_150607_C08_s3_w1FD1D564C-98FA-441B-9CF1-10833ACB6742.tif,0
Week1_150607_G02_s1_w2556B364B-F59A-441C-8DE6-7B767B7EF9BB.tif,231
Week1_150607_G04_s3_w2B95048C3-E40C-43AD-A4D6-2CA0D627B98F.tif,268
Week1_150607_E10_s3_w23D1417DF-C218-442F-9B48-BA376EBB405A.tif,441
Week1_150607_E10_s1_w225625006-6AF8-45F2-A1D8-74B8F751F88F.tif,402
Week1_150607_F02_s3_w1647A39E1-8068-4191-A732-152D3362670A.tif,0
Week1_150607_C11_s1_w269D9D95A-CDA7-47D6-A80D-15F01105CD7F.tif,80
Week1_150607_F02_s1_w43056027A-261F-4AF8-A3F0-5C831BD841AE.tif,44
Week1_150607_F10_s1_w1E7EC0C03-70E7-4E30-94BA-C7E1295F38DB.tif,0
Week1_150607_B11_s2_w411C2F79B-92CE-4F30-8CE6-B2B98767A759.tif,25
Week1_150607_D02_s4_w458711893-6C34-4BE1-9888-6F27EE935541.tif,21
Week1_150607_E11_s1_w4035A5D0C-A614-466E-ABD7-51C0BCBA437C.tif,9
Week1_150607_C06_s3_w101B66F79-258C-4E8D-ABF5-DBFE07B6C8DE.tif,0
Week1_150607_D04_s2_w161363F73-6392-4001-AB0C-8AE201D3A0CB.tif,1
Week1_150607_C04_s3_w4EB9B3BA2-811A-4B67-8539-01F042DF78AA.tif,7
Week1_150607_E07_s3_w245D1DE5F-16B3-4E98-971E-1AE89693D6D9.tif,158
Week1_150607_D03_s3_w109B1315E-33A2-42CE-88AE-A139122DBB70.tif,0
Week1_150607_B08_s3_w4986E26D2-53E1-4C38-851C-422DEDB00408.tif,18
Week1_150607_G05_s2_w25276A538-4617-488F-844D-8D4B9D611027.tif,204
Week1_150607_E02_s1_w1810768E9-2FC6-4227-A6C8-8457E0257714.tif,0
Week1_150607_E05_s1_w1FB128A45-74C9-4CC3-8E67-021B9FD15CE2.tif,1
Week1_150607_G08_s4_w2A5BD9FE4-5C76-45D5-A23A-C82FE2425579.tif,204
Week1_150607_F06_s2_w4C552B455-76F4-4E34-BF94-E7C3A818662D.tif,24
Week1_150607_G02_s2_w115A0FF64-68D7-4F2D-BCCA-7B194FEC7695.tif,0
Week1_150607_F11_s4_w2B514DE02-C749-4FC3-A254-C3E3C3E74BF1.tif,403
Week1_150607_D06_s4_w134314BDA-1524-44F3-9CF5-BBA5797060B4.tif,2
Week1_150607_C07_s1_w2E533E75A-2247-476A-B195-9D45284EE041.tif,247
Week1_150607_B02_s2_w14AB22A28-7EF5-461A-8956-A7F6A013F412.tif,1
Week1_150607_C05_s1_w2F6F8440B-A6A8-4719-A891-B4B5093B7E17.tif,345
Week1_150607_G08_s1_w49ED70C4A-9852-4CE8-B5D5-CAD63507F432.tif,11
Week1_150607_C06_s2_w140DD6BD2-085E-4862-B8CE-27B399AB2FE5.tif,0
Week1_150607_E02_s4_w1A10F47AD-95DE-4616-9748-4F102907948A.tif,0
Week1_150607_F08_s2_w1B9C947E6-FD8E-4074-84DC-BC3327F68B42.tif,0
Week1_150607_G02_s4_w11255F604-F54D-4684-8366-9CD10A31CA18.tif,0
Week1_150607_E02_s2_w22E426E83-89DC-4F14-8A18-D0A99F6F9A4C.tif,89
Week1_150607_G09_s4_w4A1758457-46FB-427D-95DF-FD47BDE127FB.tif,11
Week1_150607_G07_s2_w29C33D41A-FA38-4D61-85AB-CAF89212A537.tif,285
Week1_150607_G07_s2_w167F1AB8A-CEBA-4C22-924C-32BB79223A86.tif,0
Week1_150607_C11_s2_w29F0B630E-2C8A-4EAD-B5DD-BB1168E9FCE0.tif,65
Week1_150607_D11_s2_w16F4D3184-FC99-4128-AED5-007429339273.tif,0
Week1_150607_F02_s4_w451358B40-3B03-49A8-9905-FE51F7113AD6.tif,77
Week1_150607_D11_s1_w2F078425A-6859-4FEC-A51E-C4F40D66AED0.tif,140
Week1_150607_F10_s2_w2E753E57E-7FDD-4525-A0D7-47F42C6D3775.tif,102
Week1_150607_B05_s1_w140A399EE-D913-46D2-A665-4ECCDE7630BE.tif,9
Week1_150607_D07_s2_w26806F530-9784-43B4-804E-6D40CC1C894A.tif,71
Week1_150607_C06_s4_w4984E00FD-8FAA-4CBA-B4EC-D77A1C6A88E8.tif,25
Week1_150607_B02_s1_w23FDB0AC4-EA74-4D33-A7D4-8FFC4C9ED7C8.tif,349
Week1_150607_C04_s1_w46F5C4607-CD4F-48D1-9A03-4212E472EE57.tif,34
Week1_150607_F08_s2_w257851054-8FD9-4711-965B-40C30D489E74.tif,258
Week1_150607_G09_s3_w28EB54F64-DF93-48D4-ADC0-853AA9914DCA.tif,374
Week1_150607_E06_s4_w45C2B1056-7CFA-4E93-A1F8-E3CF577EF632.tif,47
Week1_150607_F09_s1_w21EDD5620-80A7-4003-8338-277FDA66F05A.tif,407
Week1_150607_F07_s2_w260020559-D999-4E6A-93DE-D9BDA76B5690.tif,395
Week1_150607_G11_s3_w24CB49B82-69C9-4915-B187-471413D92343.tif,394
Week1_150607_D11_s1_w1A77A28AE-84BA-4200-9CDC-C40A28515AD8.tif,2
Week1_150607_C05_s2_w1B19F9EA1-DD92-44DC-A917-E2E07F21AB21.tif,0
Week1_150607_F04_s2_w251F637B0-2FEE-4A50-AA8F-E8C0E8815AFE.tif,175
Week1_150607_F06_s2_w27B2C1CD6-D9AB-4B99-841F-D2692FFE73F2.tif,307
Week1_150607_B08_s1_w205BAFB6B-6AC3-48F8-AF6A-42FDFCC5FDA4.tif,386
Week1_150607_F05_s4_w126567995-C836-4F2B-ACFF-95BE7D3536AD.tif,0
Week1_150607_F11_s3_w114733CC4-9F76-4012-A672-847992CB93DE.tif,2
Week1_150607_C04_s4_w4055CF6A8-557B-4E89-8D66-FC9147F3D373.tif,13
Week1_150607_C03_s1_w25A044B11-66E6-425E-BA34-30351A4BDE4A.tif,263
Week1_150607_G08_s4_w4FB8404EE-75E0-4D27-9E3C-1B83C8FD9034.tif,8
Week1_150607_F09_s4_w41D5F4C5A-D84C-42B9-893B-763FED952BC4.tif,10
Week1_150607_E11_s4_w159D7F43F-8E57-4A2F-8C93-FF53F0654696.tif,0
Week1_150607_F07_s4_w49218DF29-F70F-49C1-A020-7B15A5EB7F09.tif,16
Week1_150607_C06_s1_w4B1ED3D57-0D79-49E4-94B7-C5A4B387B9EA.tif,25
Week1_150607_B09_s4_w266E38BB6-9825-4E7A-B394-F78B86C9E507.tif,377
Week1_150607_G07_s3_w42B220BAA-E6D2-4057-81F9-8609D61C8306.tif,17
Week1_150607_D11_s2_w20CA34E81-A619-4FE8-A8D4-65C47D1DFAF5.tif,90
Week1_150607_C04_s2_w1CBC91506-CAC6-4899-88B4-1FBF00815ABE.tif,0
Week1_150607_F08_s4_w1FBF83153-1687-4888-A7DC-A818DD2E14EB.tif,2
Week1_150607_G04_s2_w4BDBB705B-15DC-40E0-AAE8-1B84B3DD94C4.tif,13
Week1_150607_G07_s4_w297919902-8ED1-4E08-92A3-910B2719D4C2.tif,305
Week1_150607_G07_s2_w4C7C0C757-FDC3-4770-914B-70F1D443A934.tif,12
Week1_150607_D06_s3_w21C903F0E-092E-43E0-8556-D1109F39ACB7.tif,29
Week1_150607_C02_s2_w1D2C0B51B-A268-4753-93DD-9FDE3E89D0D1.tif,0
Week1_150607_E06_s1_w12A799099-5B5E-4113-B5BE-7C33EF966E74.tif,1
Week1_150607_F11_s2_w4906E550B-FF9A-48F5-9D52-28944CF3E422.tif,11
Week1_150607_G06_s2_w25FDFE76F-8CC5-403E-862A-8E595107576E.tif,273
Week1_150607_C07_s4_w48C8BC1AC-2BC8-4225-A013-C561E5C027FB.tif,22
Week1_150607_C06_s4_w18B6B839C-6BDD-40AE-8190-FD1984B2F347.tif,1
Week1_150607_C09_s4_w19F92470B-61E8-4C71-A553-279EFD213A38.tif,1
Week1_150607_D08_s3_w11951C182-75BF-43F7-9FC1-618B69DDE8F0.tif,16
Week1_150607_C11_s3_w237D8E19E-9C13-45DD-9EF4-E4FCCE2F6DE2.tif,118
Week1_150607_D02_s4_w11BB41BB7-E3C6-4105-B4E8-7B3E3F17BF2B.tif,0
Week1_150607_B03_s1_w41094DA98-6064-4EA2-B4A7-02A38208692F.tif,130
Week1_150607_B02_s1_w429636E34-C663-4E49-84B5-3EA429CAB4CE.tif,18
Week1_150607_G03_s1_w1236CFFD0-928F-496F-B95E-E31FD9B5974A.tif,1
Week1_150607_D11_s2_w4A94521D8-5988-494B-B504-F348B2F84EBC.tif,64
Week1_150607_F10_s1_w2EA34AD4C-2FD3-4F93-8506-ECD431CAAA3F.tif,359
Week1_150607_E06_s2_w1E955EFDE-CE60-4B42-8EC3-95E53254744C.tif,1
Week1_150607_D04_s4_w197D6777E-D317-4736-B451-13C106D213C5.tif,0
Week1_150607_B09_s4_w18E3B08F2-5729-4C92-A28A-F9BE933E4AF5.tif,0
Week1_150607_C04_s2_w433F556A5-F2C6-4F9A-B3E1-C2726D9EDB8D.tif,10
Week1_150607_G02_s4_w464604B5D-6C7A-4C81-B35D-4BC73C5C678B.tif,65
Week1_150607_B06_s1_w4D8B5CA96-C786-4EF3-A03E-9390144F36F7.tif,77
Week1_150607_E07_s4_w13864A996-917A-489E-9B24-7DB1ADD0B6E1.tif,3
Week1_150607_D11_s1_w4F57A4412-2C2F-4B78-B697-557DC0D9ACA7.tif,78
Week1_150607_D07_s3_w296E3729A-A05B-4B4B-B3B3-92BF203C7A0A.tif,58
Week1_150607_F05_s2_w16528C3A3-45C7-4E60-AC00-A29A18CFB869.tif,1
Week1_150607_C11_s4_w491C57B0D-B155-4810-818D-559D60D18BE3.tif,50
Week1_150607_G11_s2_w1812C19E4-4C9E-4D3D-A05F-37EAC4CAB01D.tif,0
Week1_150607_F10_s3_w18C9040A3-33D7-4C73-8C3F-EFDFE239DF68.tif,0
Week1_150607_B08_s4_w1A2B8893B-9B82-4DB5-A228-5F836ACC371D.tif,1
Week1_150607_C10_s2_w2CB579351-A311-4D82-A4F4-6D7CBF3C92EA.tif,237
Week1_150607_C11_s1_w124B5AE80-3103-48F0-967C-EF7567E07DE6.tif,0
Week1_150607_F06_s3_w496D08562-4CCA-463F-A28C-562DAE47574C.tif,20
Week1_150607_B08_s2_w2C4B93F0A-715F-429C-9077-BDA7FA81E439.tif,356
Week1_150607_C10_s1_w29DCB015C-38C2-41D2-A798-2E87A861AF7A.tif,355
Week1_150607_C06_s2_w26E965CD3-6198-4FA6-9218-735D1397BF60.tif,385
Week1_150607_D03_s2_w4BE97B8CC-FBA6-42D6-9E0A-402ADEBD1180.tif,69
Week1_150607_C02_s4_w41AE299C3-9F71-4F84-913E-0CFA67145971.tif,19
Week1_150607_C09_s4_w2D67BDB4C-2175-45C2-8572-43C3125836B7.tif,316
Week1_150607_B10_s4_w4E9F8C349-2B9C-440B-8F21-60333D10D6C3.tif,15
Week1_150607_B10_s2_w11107A6F1-5497-411F-9C74-8169042E2268.tif,1
Week1_150607_B03_s4_w4CE39220B-B0AC-49B5-94F8-C3545525E26C.tif,60
Week1_150607_D06_s1_w1EAB64641-343E-4D9F-8EBA-1520C365785D.tif,0
Week1_150607_E05_s3_w278375894-B3A3-4CB1-9D56-1A5383AB37F5.tif,124
Week1_150607_F04_s3_w1EF9587B5-E6E0-4068-BAC2-2C647B823DC8.tif,0
Week1_150607_D11_s3_w1DE1E9B7A-BD40-43FE-9567-0B5C45C82969.tif,0
Week1_150607_G03_s2_w23D97C3FE-1EE0-4743-88D5-B1A981A0E86C.tif,222
Week1_150607_B03_s2_w45787A3F4-4DBD-45E1-B229-32BA1BFACAC6.tif,29
Week1_150607_E08_s2_w271704A36-191B-4BB0-BB13-17211EFD633C.tif,302
Week1_150607_C03_s3_w2F2BCF447-A118-4B8C-9C4E-2FD228159B01.tif,338
Week1_150607_D08_s4_w4F48E2EC3-5E43-41EE-95FA-E9E10A2FBB97.tif,42
Week1_150607_E02_s3_w11937F1E1-916E-4328-A688-EA069C2ECC22.tif,0
Week1_150607_E07_s2_w496C9711E-90C1-425B-AC2E-1E4A285B0566.tif,54
Week1_150607_E08_s1_w4FB151688-AE38-4413-9B96-CF3F90C1046B.tif,24
Week1_150607_F03_s1_w473401973-98C0-45C2-B22B-AD00AEA6B64F.tif,4
Week1_150607_D02_s3_w150867133-698B-4768-B892-4E9D0C037640.tif,0
Week1_150607_D05_s2_w2AF4AC38C-CE96-43DC-B848-CF1FD689062E.tif,57
Week1_150607_B11_s3_w20D1294C8-ECA9-458C-BD74-16AC75A52D0F.tif,94
Week1_150607_C11_s2_w19CEDBF54-96E2-4C1B-9974-751F78EBE946.tif,0
Week1_150607_D06_s2_w403B96A3F-74A8-419D-B7DB-91FB99DC5318.tif,73
Week1_150607_B08_s3_w2BEF47B34-3E1E-4D23-884F-2F90AAE151BC.tif,404
Week1_150607_G08_s2_w43B227B69-476E-46B9-BC93-F81914595C9D.tif,12
Week1_150607_F11_s3_w4ABDF482E-28E2-4488-B127-3DC52C591C4C.tif,19
Week1_150607_D09_s4_w2D30B9A35-8EAE-4C27-9B95-9F7C0462D947.tif,65
Week1_150607_E10_s3_w43024E147-4D3A-4AD0-AA48-EAFA2DDF3B3D.tif,10
Week1_150607_D02_s3_w2C15420D8-D1FA-4C2A-9631-9C06DEB375B7.tif,221
Week1_150607_B11_s3_w4F1517468-37FE-4A88-BF25-D12B657C826B.tif,44
Week1_150607_F09_s2_w4230C37D9-A8E1-49BC-9CB4-01E1554351BE.tif,20
Week1_150607_G04_s4_w26DCD6BA9-64C2-46B8-84B9-0AFBDF4552E7.tif,209
Week1_150607_B06_s3_w13FDB7C1F-03F6-43CF-8F52-6635AE930DF7.tif,0
Week1_150607_E03_s3_w2B4AC06C0-C970-4245-8077-7D8D7773CE84.tif,88
Week1_150607_F11_s1_w2ACDD188C-0B48-49D2-9D2B-22166DA85C83.tif,314
Week1_150607_E04_s4_w4F9953394-6303-40AF-995B-CD276926823B.tif,56
Week1_150607_B03_s4_w155514C59-0387-48AC-B2C1-0FCDC248B021.tif,0
Week1_150607_D06_s3_w436F5D79B-EE30-4DF3-B2EA-DFDBF1D99074.tif,45
Week1_150607_C07_s3_w1B6CA6227-5E17-4723-AA75-D8F08F37A26D.tif,0
Week1_150607_F06_s1_w225CCF8C6-B33A-471B-A0E2-C4E138D6B7BA.tif,301
Week1_150607_F11_s2_w156E9B3B3-A620-49CA-B885-5F695C684A30.tif,0
Week1_150607_G06_s1_w48397DF59-5F69-4F3D-8C62-5317CDCA3CBD.tif,5
Week1_150607_B04_s1_w2F8F7EA7A-EC57-49CA-A556-22AE0E990BF1.tif,75
Week1_150607_B11_s3_w1434100C3-775A-4481-AF99-91487638BE08.tif,1
Week1_150607_E10_s4_w2C0AE703B-3AD0-49DC-85AB-E3E665DCD6E4.tif,415
Week1_150607_B11_s2_w234171158-BF1F-4E0E-9D07-A5F9FC786E09.tif,66
Week1_150607_G07_s4_w1F6B5590B-DD3F-498C-A058-CF652A2CF9B5.tif,0
Week1_150607_E09_s4_w219247296-F651-4288-B916-7CB52673E331.tif,361
Week1_150607_C06_s3_w489459399-61E0-4DA7-AA76-5CA25B1F67E1.tif,9
Week1_150607_E08_s2_w4276B6024-BBFD-4605-9400-59C1F5DA88A3.tif,22
Week1_150607_E03_s2_w2C905FE58-6E02-48DA-B3A9-42F58248BBE3.tif,86
Week1_150607_B05_s2_w21BBD1354-19E6-463E-BC8F-1BB2EC4EE2B2.tif,52
Week1_150607_C11_s3_w16BD8B4D5-F343-4BA8-9DA4-1131DF58CEF0.tif,0
Week1_150607_E03_s3_w1008753AF-2622-49CF-A2B4-D733A4C98BCE.tif,0
Week1_150607_G09_s3_w19114EDD0-646D-4A6F-B5CF-E1DA5FB30BE8.tif,0
Week1_150607_E04_s3_w46574FE56-87C7-407C-A7E4-C820F46BD873.tif,26
Week1_150607_B06_s2_w4EFA70117-385D-47B2-80D8-0695922E6350.tif,28
Week1_150607_F11_s4_w410C7AC0E-8B0F-4EF0-AA61-2150D4F7E435.tif,31
Week1_150607_E02_s3_w2043599C1-6E6B-4A3E-B9BD-9729F48E4FE7.tif,149
Week1_150607_C10_s2_w1F8662EC0-CF27-49A0-9A38-1E58B6EF367D.tif,0
Week1_150607_D04_s1_w1E666AE35-CC94-452A-A262-A79632C6323D.tif,0
Week1_150607_D10_s2_w1B09A9F69-E28A-441F-9A2E-2910435FEA47.tif,1
Week1_150607_F09_s4_w2091FA160-AB1F-49F0-956A-70D3B3D9D426.tif,229
Week1_150607_B04_s1_w494DCA5C4-3531-497D-A8B0-D53AA25DB02B.tif,47
Week1_150607_B02_s2_w261187024-FDFF-4974-A9AC-B09821E1F0B0.tif,307
Week1_150607_C05_s2_w497C391FB-A309-4F5F-9A07-271573A47AD5.tif,9
Week1_150607_F07_s3_w1C3A6012D-2CE4-4319-AD75-8F4022458EFB.tif,0
Week1_150607_D02_s1_w2246AD795-4BA9-4716-8262-E7757CE1CAA9.tif,293
Week1_150607_C07_s1_w1C8C66DFB-08F8-4AAA-BB23-B00469C4799F.tif,0
Week1_150607_F11_s4_w1B2BDE6CF-B685-4303-BC61-60BDDCA6CCA2.tif,1
Week1_150607_E10_s4_w15D6B2328-A832-4D98-A86A-6B9F9F1C8BB5.tif,0
Week1_150607_B04_s4_w1EB720AD1-83BA-48A7-8C47-73A4F7EC5F1A.tif,1
Week1_150607_E02_s2_w101442D8B-CCB2-431F-8050-8C48D2747276.tif,2
Week1_150607_B08_s1_w1644ACA22-0360-400C-808C-98FDEBFDABD3.tif,0
Week1_150607_B10_s2_w440669A68-2FE5-4320-ACAC-DFAABAF68297.tif,27
Week1_150607_G10_s4_w4CD08BCC2-9C34-4144-8994-A21EC4F90A22.tif,5
Week1_150607_C08_s1_w433CA7503-C3C0-4202-9E29-A2FCEC7A01DA.tif,14
Week1_150607_G07_s1_w29EBD2B89-AA5E-4C19-BE37-A36E9D984AB9.tif,347
Week1_150607_C11_s4_w1EE71EFF6-0931-45C2-8825-BAD134771E88.tif,0
Week1_150607_E06_s2_w278377020-B40B-404E-A21B-91DC4780E32F.tif,115
Week1_150607_D06_s2_w2B4291E92-41BF-4FF4-865C-90C04A337ECA.tif,105
Week1_150607_B05_s3_w4831559E9-E6F5-4DE7-A103-12B1A3E42286.tif,164
Week1_150607_D11_s4_w23B87B8D1-A82B-4B2B-A841-73261356C5BE.tif,130
Week1_150607_D08_s3_w264A5F751-A3F6-4870-B274-CA9C34DC3779.tif,71
Week1_150607_C05_s4_w10A92B8DF-3D03-4676-9F61-B4C336C74ECC.tif,0
Week1_150607_G11_s1_w1B2989688-6B61-44D6-BACB-B4EAE96EA9CC.tif,0
Week1_150607_E04_s3_w130D6ED94-EB04-4E47-8C80-36A698386ABF.tif,0
Week1_150607_D05_s2_w448383ACA-54B3-4276-8258-F2432A6B9EB3.tif,32
Week1_150607_D09_s4_w4010A7B5E-A36B-40BB-9933-99867AFC26CF.tif,83
Week1_150607_C02_s3_w1E54F0108-F44A-4F6E-9637-6A9DE80F0823.tif,0
Week1_150607_F04_s3_w22F66BBF8-A1AB-4297-962B-847DEC0B426F.tif,348
Week1_150607_B03_s2_w25CEC2D43-E105-42BB-BC00-6962B3ADEBED.tif,22
Week1_150607_C02_s3_w43361AA85-EDF4-4B17-996B-3C68924C5934.tif,19
Week1_150607_C07_s2_w442D9C8DC-7F27-4EF4-A267-CFC1B4D99352.tif,29
Week1_150607_F11_s1_w49827B3E2-6ED5-473D-824E-2B2E8DC9E56E.tif,4
Week1_150607_F02_s4_w287707533-B76F-4708-A1AF-35D53A8ACBCC.tif,101
Week1_150607_G11_s1_w4CDDF1C00-D50A-419D-9542-5BE5C80EBEAD.tif,5
Week1_150607_C03_s2_w2D5467029-D09B-4992-89A1-B9F063A60B19.tif,190
Week1_150607_C05_s3_w222A5B276-49E0-49A7-9F86-576971188F95.tif,332
Week1_150607_B05_s1_w290BFD553-CE5E-446E-BFDF-404C8D4C6433.tif,55
Week1_150607_C03_s3_w45A385B5D-3CC2-4703-B4F2-6C7626FCC09A.tif,13
Week1_150607_D05_s3_w2BC691E18-EADC-4EAF-81FD-AE9E2FCD65C8.tif,56
Week1_150607_D06_s4_w42ACEF61F-811B-468E-A925-92B17E72FC1F.tif,54
Week1_150607_D04_s1_w40AD68CDC-9C6C-45C9-AFE1-6850EBE08D69.tif,55
Week1_150607_E10_s2_w12886418D-F5C1-40B3-AC61-5D018CFA9D2C.tif,1
Week1_150607_B02_s3_w42FC6842F-711B-4C54-9153-06B657013145.tif,19
Week1_150607_B03_s1_w114129FBE-AB04-4F79-B8AF-CFA7D5524D53.tif,7
Week1_150607_F02_s1_w1A1AF4E86-E7D7-4642-A7E3-E4AF9E21672A.tif,0
Week1_150607_E11_s4_w2486C2ADD-DE1B-4122-BA86-219F8E554218.tif,400
Week1_150607_C09_s2_w1EC53CDE1-631F-467B-AC80-06853B346E66.tif,0
Week1_150607_D09_s2_w266ACCA0B-D47D-4236-8C36-D32542D02B2E.tif,97
Week1_150607_E10_s1_w4288C0B45-A218-462A-ADF9-9981999D71DB.tif,21
Week1_150607_E06_s4_w14EF9B335-2136-49E9-B7C3-20D6B4892FE2.tif,1
Week1_150607_B06_s3_w48FB4A0F1-70A9-468C-917E-3DD9CA8431B8.tif,58
Week1_150607_B11_s4_w2B2124BFE-4EA4-423D-AFBB-FEC820FA23AE.tif,130
Week1_150607_G03_s3_w2524FA534-9C31-4304-99D1-4BDDA2C59377.tif,437
Week1_150607_E05_s3_w1BC509894-F30E-430E-AD58-28736530E0A5.tif,0
Week1_150607_E11_s3_w11EEE7574-5E38-4B65-ABEC-A2A79C42F8C2.tif,1
Week1_150607_G03_s4_w177D023B1-527C-46C9-961F-48F39BD63D08.tif,1
Week1_150607_C09_s2_w2480FB1D6-0E94-4286-9B69-DAD82C72EB42.tif,296
Week1_150607_B11_s4_w1F3E7B8DB-3C22-473E-B5BF-26661253F95C.tif,0
Week1_150607_G07_s1_w1104BC9E3-2271-47EB-AE8C-CA957F0005D5.tif,0
Week1_150607_C06_s2_w4364F4EDD-88B6-4D06-8A71-414AF5EF34F3.tif,26
Week1_150607_F04_s4_w44C389EAA-7E6E-4214-96B8-FD879EB29656.tif,15
Week1_150607_E03_s2_w4313CC8E9-0BA5-4480-B2FE-98AB8597DA05.tif,65
Week1_150607_E05_s4_w12EED2CC3-DD1A-40C4-BC94-7557C68EF8B4.tif,1
Week1_150607_E06_s4_w2C3FED95E-DC41-4741-BA7E-CEA837CD8BF1.tif,206
Week1_150607_G03_s4_w25B402F9E-60E1-426E-BE07-5786A8E798EE.tif,293
Week1_150607_E10_s2_w252ACF154-DC49-4879-BD3B-773F57A6188D.tif,149
Week1_150607_B05_s1_w465694D65-A55B-4D05-B8FD-B16BD6556F0C.tif,130
Week1_150607_D04_s4_w4B0E6F18D-A29F-4ED7-85B2-135F56D37088.tif,88
Week1_150607_F11_s2_w239C0ED61-BD93-4D4A-871D-9FAE33CC582D.tif,264
Week1_150607_E04_s2_w20CA41AF3-06DE-405B-AF72-4F26DEBC13E6.tif,85
Week1_150607_G10_s4_w2C8A476B6-36A6-4406-A65C-BCE516C0D107.tif,271
Week1_150607_F04_s1_w1ED8BA372-77D7-4A2B-878E-928FB883544C.tif,0
Week1_150607_C06_s3_w266D90479-317C-45D4-98F1-3C1AB22BDE50.tif,202
Week1_150607_B02_s4_w1EB868A72-19FC-46BB-BDFA-66B8966A817C.tif,0
Week1_150607_F06_s4_w1ABC2EAEE-01B3-4A2B-B8A7-53A106DB3BEC.tif,0
Week1_150607_F08_s2_w46B6642D2-4560-4651-B0C2-58B7AF186AA2.tif,14
Week1_150607_C06_s1_w10E977263-BE9D-4ED2-9931-82291834B1B3.tif,1
Week1_150607_F11_s3_w2BA703371-976A-4ABC-AE5D-2A1DF51767DF.tif,413
Week1_150607_D03_s1_w4DC12732C-4F80-4D49-B0B6-1235F7F9B38B.tif,107
Week1_150607_F03_s1_w1B6C9D5C3-95F1-41F5-BEFA-E52F3B51D2F6.tif,0
Week1_150607_F03_s4_w4F4F63AA5-8144-4C9C-959E-A9221E444369.tif,7
Week1_150607_D10_s3_w4EB8A365E-DF1E-49E9-8E14-9F11B5665718.tif,21
Week1_150607_B04_s3_w135D66B4C-0548-4AB8-A57B-9CC39666813B.tif,0
Week1_150607_F07_s3_w4D0E14FA5-C364-4611-B6C8-283EB5497732.tif,12
Week1_150607_D09_s3_w264809A9C-74E6-4546-8784-636C582FF043.tif,94
Week1_150607_D07_s3_w4ADCBBAE3-7083-4835-B286-50F67176D400.tif,66
Week1_150607_C09_s1_w27BEDAEBE-0D98-4D1A-A6DD-F4CE3C5179A6.tif,441
Week1_150607_G10_s3_w27FBACF02-DAEF-4EDE-B16C-A4104627BDD3.tif,216
Week1_150607_G08_s3_w405A79C6E-3EBE-4D89-9369-3877FD94908E.tif,6
Week1_150607_B09_s1_w1B972836D-054B-4581-A177-4B2EB408C339.tif,0
Week1_150607_F06_s1_w12A97E478-18EC-4325-9298-3F4D55C397E0.tif,0
Week1_150607_G04_s3_w497873A5F-208A-4BE5-809A-9DA16A1C936C.tif,13
Week1_150607_F10_s1_w4A94779B3-C164-4BDE-9341-CB2D81726AC9.tif,17
Week1_150607_D10_s4_w12D182825-FB64-4A83-889E-3A6F9225ADE8.tif,2
Week1_150607_B10_s2_w24E727B79-F011-484E-80BB-29BF66452BAF.tif,173
Week1_150607_E11_s2_w4BE8D0DB7-B226-4829-B5DD-5D63E6CD8E66.tif,8
Week1_150607_B09_s4_w40E46F39B-14D9-43A3-832C-59D9F800CC2A.tif,30
Week1_150607_F10_s4_w40C76C005-7DD3-4F67-9321-105E86CB7198.tif,15
Week1_150607_F03_s4_w298B4C28D-CD5F-4CD4-AF3D-A3A19954C554.tif,318
Week1_150607_D02_s4_w2787984A1-0399-4930-A1B0-4B4F0A349262.tif,328
Week1_150607_G05_s2_w4BD836AE9-857F-4238-9E30-FCD3484AC5BF.tif,18
Week1_150607_C09_s3_w2C2EED073-3715-487C-BE27-6AF2E08A4720.tif,430
Week1_150607_D09_s3_w4D72E5863-22CB-46C7-982A-04437A468A7B.tif,63
Week1_150607_G09_s1_w2F3401999-5124-4541-9966-AF5BB76110E0.tif,184
Week1_150607_E03_s4_w1283F68AE-A41B-448C-BC6B-264BA45F9E1A.tif,0
Week1_150607_G04_s1_w16BB1F9C0-F2C2-41BF-A69A-EEC30D44CBB8.tif,0
Week1_150607_C07_s4_w2567FCEDF-90AB-4F85-8531-9B311F0499DE.tif,389
Week1_150607_F04_s2_w47E89E401-7B6B-4620-B607-3C5762BC3CDD.tif,6
Week1_150607_G10_s3_w45F13643C-9940-467A-AF4E-7F31163163C7.tif,24
Week1_150607_E03_s2_w1560CB402-89C2-4AB7-A046-52D5F6518BBD.tif,0
Week1_150607_C10_s3_w4950BFBAE-7828-415B-B604-76E5B368657B.tif,20
Week1_150607_E05_s4_w44CC1DE32-09F7-419A-8088-25626CE8A616.tif,72
Week1_150607_F09_s2_w290489025-1077-4216-AC96-0B2A062BBC19.tif,374
Week1_150607_E10_s4_w40EA54690-2ECA-4311-A0BE-0243F804036F.tif,30
Week1_150607_E11_s3_w477D03D0A-A4CB-4EA7-936B-68576D00AEA6.tif,10
Week1_150607_C05_s1_w415DB1FC8-6666-4C4C-9E65-34D287ED249B.tif,42
Week1_150607_D08_s4_w13A86702F-1617-4763-832C-748BEF6E74D2.tif,5
Week1_150607_F08_s4_w2F6C5D980-DD98-4A9F-9E5B-84276442961A.tif,246
Week1_150607_D04_s2_w281A7D418-05F3-492B-B131-4D369C9C624D.tif,114
Week1_150607_B09_s2_w1812CDDA3-7BC5-4A33-8F77-52F05EB10CC8.tif,1
Week1_150607_D03_s2_w2B28CA069-3563-4BC1-B909-8438B955D48C.tif,118
Week1_150607_B10_s1_w1258CECBC-20F3-4929-986F-107B6E6D7580.tif,0
Week1_150607_E08_s4_w257EED12D-CB72-432B-B798-B48229CC6D55.tif,337
Week1_150607_B07_s1_w1AA2DD849-2719-41FE-85C8-C7B49A84841B.tif,3
Week1_150607_G08_s4_w159BA6441-A6E2-40AB-B6A2-4E890836C0FA.tif,0
Week1_150607_C05_s4_w2C838DAD5-BAFD-42B5-A37D-837E7253A55C.tif,261
Week1_150607_E05_s1_w481DC059D-76AC-449F-9F98-1928951CC7B3.tif,42
Week1_150607_D11_s3_w2A674ABD7-C6B6-479F-B5A5-F90029867289.tif,45
Week1_150607_B06_s1_w27C9B250E-2C6C-4A95-BF9C-9007F7D077FC.tif,265
Week1_150607_D02_s3_w4B5312849-FACF-4AB5-8CF7-7C0EE0F3F05F.tif,15
Week1_150607_E07_s2_w12043BFBB-88F7-4ABF-B9E8-74E997FA652B.tif,4
Week1_150607_B09_s3_w28096943B-2C7B-46DB-9CE2-2034528BAECD.tif,467
Week1_150607_D02_s2_w1EB360523-66AA-40C3-8A93-71C928012CA0.tif,1
Week1_150607_C04_s3_w20E1EFF64-1EA8-4F62-978D-57629B32133C.tif,308
Week1_150607_G03_s1_w49AB285E9-4D3B-4573-891C-7FF378442A6A.tif,10
Week1_150607_G10_s1_w4A8276674-95C0-44B1-85D5-502D842DB5BD.tif,14
Week1_150607_B03_s3_w47D57FC50-6AF2-4154-B29B-EC21ADF4D9C1.tif,113
Week1_150607_C08_s1_w1F53B52B0-CE67-45C2-9A69-CE3802775B6F.tif,0
Week1_150607_E03_s1_w44CBCF5A0-2A59-4426-925F-5E5673C685FF.tif,47
Week1_150607_C04_s4_w1A3ACCFF8-F056-4D50-A11B-A3A24744E764.tif,0
Week1_150607_D10_s3_w172448BEF-3248-4414-81F8-062AD4A8A945.tif,1
Week1_150607_C10_s1_w48B202CFA-2040-4647-8F8B-A10463E4016A.tif,16
Week1_150607_D03_s4_w2AC164EEB-EB80-43B4-ABE2-C3FB1EDCE8B6.tif,75
Week1_150607_D05_s4_w250447A92-123E-4067-A735-AD513DE0FCD4.tif,57
Week1_150607_F04_s4_w23D9C7BD8-E225-424A-8778-28B28586A26B.tif,345
Week1_150607_G08_s1_w1B6C24C30-E50D-4513-9B0A-1D33894E09CA.tif,1
Week1_150607_B05_s3_w1CE5DE66B-59C3-4271-8785-6B1E8C47C5DE.tif,9
Week1_150607_C03_s1_w1EA244626-2D0F-4DAA-A453-A3BE70D963FE.tif,0
Week1_150607_G10_s2_w29D068DDF-0B7F-4D8F-AD7A-A701DE9C2F51.tif,206
Week1_150607_G06_s3_w20A8D8AFF-F081-442D-AA17-6A7D00EB0973.tif,205
Week1_150607_B05_s3_w26CBBF328-07EA-46A4-9B62-22201528B370.tif,73
Week1_150607_B10_s3_w10F78A46F-2398-4E80-8BF9-4A999B6D00F6.tif,0
Week1_150607_D04_s3_w4B2EAE76B-A39C-496A-BBCA-F33DA755F68F.tif,65
Week1_150607_B11_s4_w494AC85B6-860A-4836-B06E-D5AC77891599.tif,92
Week1_150607_F06_s4_w2FA47F0B2-7AE9-4C83-9DD4-F619AC357B33.tif,121
Week1_150607_G06_s2_w4CA4C49B6-595A-4EC7-A7D4-51733490E30E.tif,26
Week1_150607_E08_s3_w175DE2568-3D95-4FE0-81AD-5E92EA62F91B.tif,0
Week1_150607_D07_s4_w15219BDAE-81AD-4258-AA9B-3E418375192D.tif,0
Week1_150607_G02_s2_w26108DD82-CA90-4ADF-89F8-8029A8E19E54.tif,104
Week1_150607_B03_s3_w249EE4202-8755-41DD-A4EA-40BA80C0E39C.tif,79
Week1_150607_E09_s2_w4BDA8D511-CB50-4083-9CAA-1869F3B5CAB8.tif,18
Week1_150607_F08_s3_w4AD135506-C6AB-4617-AD97-BB3755DFCB16.tif,11
Week1_150607_D11_s3_w4263DF944-4386-45FD-B1A9-2384F6BEA261.tif,33
Week1_150607_C09_s3_w466DB9033-2506-4C29-B9B9-B8F728AC7077.tif,11
Week1_150607_F05_s2_w49221843C-FC82-41E9-B77B-CAF20B4B6E7F.tif,20
Week1_150607_F09_s3_w2A5D24DBA-FB17-479A-AD1B-058C6D4F2E0D.tif,313
Week1_150607_D05_s3_w41F9AE0AC-329E-442A-8A5B-056446244A57.tif,43
Week1_150607_G05_s2_w15BF959C4-EBD8-4E47-8A78-7D83ADC8E032.tif,0
Week1_150607_C02_s3_w21E85592E-94B0-43AF-8EDA-40624931EA89.tif,444
Week1_150607_D09_s3_w194705379-B3D3-4F19-B5F4-6911C8E6EBFA.tif,0
Week1_150607_D08_s1_w13331F8E3-12C9-4E9A-BA63-B8E7F3E31C81.tif,8
Week1_150607_E05_s2_w4F5A5BD28-D38B-4645-9DB3-FF57BA5A183F.tif,39
Week1_150607_F04_s2_w16C28E1E2-B1F7-4177-B7E6-678E2EEA60F9.tif,0
Week1_150607_B07_s2_w267C3E21E-0A1A-4E85-A82F-ABD23AC41B10.tif,331
Week1_150607_D06_s4_w23BC52B42-4D60-432F-968F-5B021C1A132A.tif,39
Week1_150607_B11_s2_w10D63B690-EF01-47D0-A38A-F726A1EE6CC6.tif,0
Week1_150607_D04_s3_w2B896F357-730E-4B8A-A97C-D23C71D4BF78.tif,93
Week1_150607_B07_s1_w41F077EC5-1D4B-4A2C-B74C-3D8D836B0B1B.tif,9
Week1_150607_B02_s4_w41A954BC1-C02D-4D53-8786-1A192C4D5143.tif,37
Week1_150607_F10_s3_w47DB66CE4-4648-4F20-BBE2-EAE88A25CFA1.tif,16
Week1_150607_B09_s1_w262218224-BF35-49AD-8FE7-B1302AF713DC.tif,360
Week1_150607_G02_s4_w2CC494643-8940-4684-9167-11B9F1FE36EA.tif,127
Week1_150607_G09_s4_w1580FCEBB-4414-431B-9841-29E5729FE36C.tif,0
Week1_150607_D07_s2_w4DF2F3BC6-3834-4576-835E-62C06B6AB495.tif,91
Week1_150607_C10_s4_w29A2EEDA6-0A8A-4C8B-A508-DEE0CB21F4E7.tif,370
Week1_150607_D02_s2_w2E7C02FBD-C0BE-4F96-A12C-DEC70B55D74D.tif,179
Week1_150607_C10_s4_w473E67441-A601-4A48-956D-29F43B419CCD.tif,28
Week1_150607_B09_s3_w17D3FD276-03CC-4737-A07D-FF1A63F6E7D6.tif,0
Week1_150607_C08_s2_w104ADC53B-63DF-4F11-B1F2-2715EB495F3A.tif,0
Week1_150607_G08_s1_w29F6758F6-C6FF-4623-A18D-7F5B49B3CA03.tif,243
Week1_150607_C09_s4_w4B0ACB819-D21C-4BA0-9E3E-78CF00714844.tif,14
Week1_150607_E09_s3_w120F05ACF-CB9B-44CD-B2C0-1ECF777BE94A.tif,0
Week1_150607_G05_s1_w274C661C9-11A3-4295-8379-FDA0DD24C31A.tif,247
Week1_150607_F05_s1_w21242BFE7-BF11-4209-BEA8-5FC1DC835B9B.tif,335
Week1_150607_C07_s3_w4EC4AE9D9-5355-44D0-8473-8F7D61009C3C.tif,18
Week1_150607_D11_s4_w151A96043-7597-4A92-9DBB-E5693804BE7F.tif,0
Week1_150607_C02_s1_w22EE8A44A-A4F5-40FF-97C1-351EF5EE545D.tif,377
Week1_150607_D03_s3_w4A2C07FBC-D307-4379-9C48-1E18AFECD8F1.tif,70
Week1_150607_G11_s4_w4054FDDEF-19CC-41C5-B281-2E18E66991C1.tif,20
Week1_150607_F04_s4_w1598DDBDE-2B36-4F47-932A-095A0FDB3588.tif,0
Week1_150607_C03_s4_w4434AD1A7-8419-4578-88FF-1BA9A366A0D3.tif,12
Week1_150607_G09_s4_w20C86D358-DFDF-480F-BD74-254F1A5BE069.tif,362
Week1_150607_C02_s4_w10AADD117-0D2E-4EC9-A29A-FC456BBE6EF3.tif,1
Week1_150607_B07_s3_w266892EEC-DCE0-45F2-BA74-8DD6442CD55E.tif,384
Week1_150607_E03_s1_w1CC9CF6DE-5D49-485C-B53A-C5F23960F132.tif,0
Week1_150607_E09_s4_w139B779EB-3632-425F-8A88-2CFCBF5D65C7.tif,0
Week1_150607_E09_s1_w2D013258C-70C2-4A4C-8E6D-88DA824429D1.tif,232
Week1_150607_D09_s1_w41B631442-B106-4268-9259-4A2A41581B4F.tif,74
Week1_150607_C11_s3_w4F83E71F7-E9F4-4927-8077-4F16D765529A.tif,50
Week1_150607_F11_s1_w119734A0F-4439-4AD6-A0F1-D720CB8341EB.tif,0
Week1_150607_E09_s3_w49D89BCE4-11F2-4617-9A0A-9A6E1AC9D921.tif,21
Week1_150607_B09_s3_w416AC6F59-E897-4FB9-BC67-9A751D6E9886.tif,18
Week1_150607_C04_s2_w2CC3AA9A8-8B46-4C22-B38D-C862D819B52A.tif,300
Week1_150607_G02_s3_w1607F24F8-3FB5-485F-BD97-115B64A36146.tif,0
Week1_150607_B08_s4_w23D9D5334-78B4-489C-BBEF-DB6C590A836E.tif,199
Week1_150607_E04_s3_w2AF24C326-E41A-4E65-8C27-0306CCF1EDB1.tif,135
Week1_150607_E04_s1_w171BF0848-4027-44D3-B6B8-863C8523F226.tif,0
Week1_150607_E10_s2_w4A3F850EF-9D61-4E7C-8817-66841B23CE2F.tif,4
Week1_150607_C11_s4_w2B937ED1C-43D1-4F42-B7F2-6526AB73A696.tif,93
Week1_150607_E07_s1_w28793CA02-5665-40C7-AD77-B506FFD23023.tif,222
Week1_150607_E05_s2_w17E8FFEA0-3F01-442C-B917-82E904D921E1.tif,1
Week1_150607_E06_s3_w43B713AEF-EDF5-4750-9878-05CABD165801.tif,78
Week1_150607_E08_s4_w42DC68C3F-7A9F-4173-A7E1-65B3449E9671.tif,25
Week1_150607_C10_s3_w28A6A7E22-60C3-46B1-983D-DF8875646915.tif,359
Week1_150607_B10_s4_w2FFF9A40A-1458-492F-8063-2CF853830F2A.tif,331
Week1_150607_D08_s1_w20D27FBBC-2287-4B0D-8C3F-2AACD20F0DCF.tif,100
Week1_150607_C09_s1_w4190BB82C-2D17-4263-A251-182E6CFD64BF.tif,29
Week1_150607_B04_s3_w2D81AEFB9-9DD4-4B59-9177-2093F0815C94.tif,94
Week1_150607_F04_s1_w24257C11B-EE13-4A99-87DB-1896E1BB62AF.tif,325
Week1_150607_C03_s1_w4A8921C04-FA55-4B0B-BDA0-7F0E94EED999.tif,5
Week1_150607_C07_s4_w199D42711-9DA8-458F-B2CB-7A36836E4197.tif,0
Week1_150607_B07_s3_w1ADD8AD94-C52F-4AAA-B2A8-03B7AF2CD372.tif,0
Week1_150607_G05_s4_w14E318D45-E392-4D6E-ABE2-47389CF26E72.tif,0
Week1_150607_G09_s2_w43C459675-33DC-4073-8535-D05322E3CD8D.tif,7
Week1_150607_G11_s2_w4310639EA-8FD5-42E2-A8E5-A76F403540FD.tif,12
Week1_150607_E03_s3_w43E5FE33C-6C78-408C-8B1D-E303B63AA467.tif,46
Week1_150607_D10_s1_w479801D63-E996-4044-995D-E3BEED37F718.tif,27
Week1_150607_C07_s2_w1EC2BAF37-9E6B-426B-A8BB-09EB229B07C9.tif,0
Week1_150607_D03_s4_w1EDC73C13-5D45-4B1F-8DD2-32894727DBC9.tif,0
Week1_150607_E02_s4_w26D5C5243-B148-4F0B-84E6-5A1BA4F36962.tif,55
Week1_150607_G02_s3_w25BCED51C-8910-43E6-9B7C-9D94141E75CB.tif,107
Week1_150607_B08_s3_w1E1174621-33AA-42EF-B542-15C80A8D4400.tif,0
Week1_150607_F07_s1_w11030DFF7-9403-4E0C-BA68-7B622999161F.tif,0
Week1_150607_D07_s3_w106D17A5A-3E90-4E04-95BE-F8AC7344B8ED.tif,0
Week1_150607_D05_s4_w1A2BBB5F4-0D8A-4A48-9C36-C331BC273019.tif,0
Week1_150607_E06_s3_w2A460D4C0-5173-44F8-B5B4-9E1CCEA8E557.tif,259
Week1_150607_F06_s2_w1027E23AB-439A-42C1-BE77-E35E1491543A.tif,1
Week1_150607_C07_s3_w293D36D29-6395-4C2F-8790-0EAE1D57D6B9.tif,362
Week1_150607_B05_s2_w1ED72F1FB-DE5B-4299-99D1-797C330BA1EA.tif,11
Week1_150607_F08_s3_w161C1BC3A-613D-42DA-B7BE-BD7E482210DD.tif,0
Week1_150607_D03_s4_w4E7A63F15-5375-4B8B-A00A-9CDC4239C1E8.tif,39
Week1_150607_G03_s1_w22EF6381C-89E7-4B40-81B8-0B8F25DDB765.tif,390
Week1_150607_G02_s1_w43BFFA9E7-BC03-4F92-B8AD-89663D1ED234.tif,76
Week1_150607_B04_s4_w49FF7E7B1-F049-4994-BCA2-ABE5D4A3C761.tif,92
Week1_150607_F07_s4_w17A56380F-7EAF-4251-BC45-A5459E69DA48.tif,1
Week1_150607_D05_s4_w47784687D-0A3F-43BB-B87B-68B51FEA06EE.tif,44
Week1_150607_F09_s2_w1DB0123E7-EAA2-4B7F-94A5-50658783FF5F.tif,1
Week1_150607_E09_s1_w1B5C7A17F-3BAB-4CBC-AC5F-330FDA00BA72.tif,0
Week1_150607_E07_s2_w28295E8CE-F2D8-48CF-9F7F-6D6B442876A2.tif,173
Week1_150607_F07_s4_w249BD2D89-FEBE-45FA-B381-F292C93CC2E5.tif,309
Week1_150607_E05_s2_w211352BA6-6D69-47AE-A1CE-F600B3A92BF4.tif,81
Week1_150607_D10_s4_w25F7ECE50-9CDA-4C70-A479-B1944A0FA6E1.tif,177
Week1_150607_F06_s3_w20A0EE8C8-8BF0-40B9-A829-E1A1F442D1E7.tif,282
Week1_150607_B04_s4_w261B79A05-7534-46F3-8C80-D67A89A3A125.tif,90
Week1_150607_B04_s2_w1F649C703-6FA8-406F-8575-CBEAC160B4BD.tif,2
Week1_150607_E04_s4_w1AD7E0FBB-36C7-4CDF-B90D-F3B3D98BD8CD.tif,0
Week1_150607_B07_s4_w479B3C56B-49CA-4889-B773-E03D88BE3EB9.tif,26
Week1_150607_G09_s3_w495BBDEDE-2E8A-42FF-98A8-90E691B1A5E5.tif,30
Week1_150607_D04_s1_w26D8668C2-6A30-45E6-B1B6-EE181B279F26.tif,85
Week1_150607_E02_s1_w481CF8A87-FE7E-490E-A3BE-26B37D925924.tif,88
Week1_150607_D03_s3_w24989DDFF-2D07-47A3-AD48-D05E7C8F6FE3.tif,102
Week1_150607_B07_s4_w18DDBFE26-A7B3-42A6-8688-B0A950DF53E2.tif,0
Week1_150607_G08_s2_w244C8E57B-C84F-41AA-9AA7-40A006D5A1D9.tif,322
Week1_150607_G05_s1_w43C6092CB-8918-4018-A9E8-257535F40526.tif,11
Week1_150607_F05_s3_w2A1AC83AB-8B3A-40EC-A157-B7565748141F.tif,425
Week1_150607_C05_s4_w416A146EB-DD6B-4FAD-AC78-C392E06F7AF4.tif,16
Week1_150607_E11_s1_w2CDC78DBA-6730-45BA-B683-D139028E0F7C.tif,463
Week1_150607_B05_s4_w4D17BA0E9-A12C-4CC1-B6C2-90C72E6D2B51.tif,100
Week1_150607_E11_s4_w47EFE194C-E2C8-4CA2-9169-5E7674CC449B.tif,24
Week1_150607_E11_s2_w185FD4BFE-407C-43FA-8376-281D21993540.tif,5
Week1_150607_D07_s4_w276234F3A-CA39-452E-9A65-E9A5BDF10D90.tif,61
Week1_150607_E05_s3_w4140AB75C-5FD4-4F79-9009-0A5138C6FAB4.tif,75
Week1_150607_G10_s1_w269E90752-FE3D-43D2-A0CE-41AC8E672247.tif,270
Week1_150607_D02_s1_w404649733-BF11-4864-A4C7-7372E6697D47.tif,16
Week1_150607_B04_s2_w4342F300D-60F8-4256-A637-F1367E14BE5E.tif,48
Week1_150607_F03_s2_w2109F2298-026C-424A-B0C9-DA4AA66265F3.tif,222
Week1_150607_F07_s2_w1836BAAAD-77F0-4EF0-B38E-0BF34F6B98EC.tif,0
Week1_150607_C09_s3_w1E213B988-213D-4705-B627-87A979BC7220.tif,0
Week1_150607_F07_s1_w2CAC48EEB-7160-4C7F-B08F-8816A527EEA0.tif,253
Week1_150607_D05_s1_w273A30DCC-AF89-4B66-97D7-B69CF14262EF.tif,111
Week1_150607_B10_s4_w1FAF5AF43-4910-4377-95A2-F5C0FA01A5F7.tif,0
Week1_150607_C03_s2_w41B8FD592-3955-4DE8-8599-C15959438CE6.tif,7
Week1_150607_E02_s1_w2865EF5D4-D43C-4F55-B396-D1B636C06225.tif,98
Week1_150607_D02_s2_w48DDF9CC8-3134-42BD-823F-AD9190DD74F1.tif,2
Week1_150607_B08_s4_w4401B1A7B-5F93-4931-A3EC-C63194E39A53.tif,18
Week1_150607_D09_s2_w45B3C0784-BEEC-4060-8C7B-02392B6E906A.tif,71
Week1_150607_B03_s3_w1FD5D2AA2-BCCE-4C01-B0DE-58F6202CF6C8.tif,2
Week1_150607_G04_s4_w4C1A5CDB3-B856-492F-A8EA-16A52A3EC40C.tif,10
Week1_150607_F09_s1_w47639EA26-2FE8-470D-B82C-DB87685DF0AC.tif,16
Week1_150607_F03_s1_w22296B211-854F-413A-AD48-3409BED9882A.tif,354
Week1_150607_G05_s4_w4D89DD394-F8BF-48C3-A24D-A9600BF6F97F.tif,6
Week1_150607_B06_s4_w41D9033CB-CBF6-40E0-BEF2-B4FA2188FC6D.tif,34
Week1_150607_E10_s3_w107FD68E0-1689-4454-AE58-6D085FF0ABD0.tif,0
Week1_150607_E04_s1_w2C709B861-E4A8-499D-B575-33072064F217.tif,140
Week1_150607_F09_s4_w1968BC940-401E-426D-A1D0-15E82BB64B65.tif,0
Week1_150607_B02_s3_w20FD24170-F66E-419B-84A3-E33497787290.tif,432
Week1_150607_D04_s2_w4679B6D6B-FC07-4874-8CEF-ACE5E344AE12.tif,88
Week1_150607_B06_s2_w1EF6FFE58-57E9-48E7-A5BD-F049F9FF2A63.tif,1
Week1_150607_F05_s1_w1B3D35429-E40D-4429-8FA4-770923F02A8E.tif,0
Week1_150607_D09_s1_w269452068-D66B-48E9-8054-6A823EEA7374.tif,112
Week1_150607_E04_s4_w243F685F7-0F6A-4EC3-89A6-BF10BC8D88A6.tif,135
Week1_150607_F06_s3_w17683974B-3505-4E54-A3FD-513A86A270AB.tif,0
Week1_150607_G07_s3_w117912846-6649-4DD3-BD29-75DD617F3B57.tif,0
Week1_150607_F03_s3_w10DCE49CC-F3A5-4087-B290-2B06B7EBBC26.tif,0
Week1_150607_F02_s2_w4FFC261EB-155B-4F33-9475-EB36E69EB306.tif,31
Week1_150607_G11_s2_w27AF8947B-012C-4541-8F45-E79EC37DB0FE.tif,212
Week1_150607_B04_s1_w11323931B-BDA7-4F42-870E-7174BFBF3643.tif,1
Week1_150607_C06_s1_w20B01C3F8-1CA8-442E-8965-CD62A99AD1A5.tif,287
Week1_150607_C11_s1_w40A2133EC-1EFE-4BD4-BE40-C2F45412F4E5.tif,35
Week1_150607_E06_s1_w2450A3D76-BED1-441E-92F3-3F333AF2566E.tif,143
Week1_150607_D05_s2_w1725C6E34-FF4A-4DCE-B987-B357435AE721.tif,0
Week1_150607_E08_s3_w4B5685F49-117B-41D5-A2D5-C72EE1A9CF71.tif,35
Week1_150607_C04_s3_w19BDEE009-E4DE-49CD-A88A-4EC01D7EA095.tif,0
Week1_150607_B06_s4_w25A1DDC24-71F0-4339-BD66-3B9AC3C9369C.tif,321
Week1_150607_E07_s1_w13C94606D-7D62-433B-9FC8-6866ED66FE56.tif,0
Week1_150607_F03_s3_w24F3CFF2E-4F5F-4B21-9666-D2DE6C278506.tif,344
Week1_150607_D07_s1_w2DCEB6AD5-261E-4F5C-A542-229389E3C51B.tif,58
Week1_150607_G07_s3_w288731C76-84C5-455C-90D3-14C1234B4D6A.tif,348
Week1_150607_D10_s1_w1F64CD6B0-677C-47AD-A762-9D25C53F85FA.tif,0
Week1_150607_F02_s2_w2D5550D4F-4F8B-4F32-BF69-4EC0CA06B852.tif,56
Week1_150607_B05_s4_w26CC3891A-624E-4C93-9D83-2AF40EF47D4F.tif,64
Week1_150607_B07_s3_w497A08BBA-5024-4344-8C49-F36F69C77729.tif,20
Week1_150607_D04_s3_w1149494DA-334B-44B3-B213-01EB56039515.tif,0
Week1_150607_G08_s2_w184C1459A-44FD-4F5C-95C8-C0640104A87F.tif,1
Week1_150607_B06_s4_w17F35B845-6A1A-4537-9C03-E90E70EADD67.tif,0
Week1_150607_E06_s1_w44DF425B3-7A78-4C61-8A63-1FC1936EC795.tif,19
Week1_150607_C10_s3_w10252F34C-B9EA-4515-ACDA-246587D78822.tif,0
Week1_150607_B06_s3_w2FD4DBFEC-C379-44F0-9F73-16467A1C39AC.tif,293
Week1_150607_E07_s3_w49438C8D5-846F-443E-ADE0-122A65274CB1.tif,26
Week1_150607_E07_s1_w4DBE94139-AD8E-4552-9A3F-B3C4890EDF70.tif,48
Week1_150607_D03_s1_w14A046B2B-8EAA-4E70-8E95-56C0E0B9F363.tif,0
Week1_150607_B06_s1_w1D5CB4DF8-B908-4AD5-976A-37F3F20D7F7D.tif,4
